EESchema Schematic File Version 2
LIBS:power
LIBS:device
LIBS:transistors
LIBS:conn
LIBS:linear
LIBS:regul
LIBS:74xx
LIBS:cmos4000
LIBS:adc-dac
LIBS:memory
LIBS:xilinx
LIBS:microcontrollers
LIBS:dsp
LIBS:microchip
LIBS:analog_switches
LIBS:motorola
LIBS:texas
LIBS:intel
LIBS:audio
LIBS:interface
LIBS:digital-audio
LIBS:philips
LIBS:display
LIBS:cypress
LIBS:siliconi
LIBS:opto
LIBS:atmel
LIBS:contrib
LIBS:valves
LIBS:XPT2046
LIBS:NCS2211
LIBS:SSM3J328RLF
LIBS:IP4220CZ6
LIBS:LD3985M3xR
LIBS:RT9728Bx
LIBS:DIN_6
LIBS:5INCH_DPI_LCD
LIBS:RT4533
LIBS:STM32F767VxTx
LIBS:switches
LIBS:Mounting_Hole
LIBS:diy-vt100-cache
EELAYER 25 0
EELAYER END
$Descr A4 11693 8268
encoding utf-8
Sheet 7 11
Title "diy-VT100"
Date ""
Rev "0.4"
Comp "Mad Resistor"
Comment1 "https://www.madresistor.com/diy-vt100"
Comment2 "Copyright (C) 2016, 2017 Mad Resistor"
Comment3 ""
Comment4 ""
$EndDescr
$Comp
L R R22
U 1 1 57651A9D
P 4600 2200
F 0 "R22" V 4680 2200 50  0000 C CNN
F 1 "510" V 4600 2200 50  0000 C CNN
F 2 "Resistors_SMD:R_0603" V 4530 2200 50  0001 C CNN
F 3 "" H 4600 2200 50  0000 C CNN
	1    4600 2200
	0    -1   -1   0   
$EndComp
$Comp
L GND #PWR074
U 1 1 57651B1C
P 4950 2600
F 0 "#PWR074" H 4950 2350 50  0001 C CNN
F 1 "GND" H 4950 2450 50  0000 C CNN
F 2 "" H 4950 2600 50  0000 C CNN
F 3 "" H 4950 2600 50  0000 C CNN
	1    4950 2600
	1    0    0    -1  
$EndComp
Text HLabel 4150 2200 0    60   Input ~ 0
ONLINE
$Comp
L R R23
U 1 1 57651C69
P 4600 3000
F 0 "R23" V 4680 3000 50  0000 C CNN
F 1 "510" V 4600 3000 50  0000 C CNN
F 2 "Resistors_SMD:R_0603" V 4530 3000 50  0001 C CNN
F 3 "" H 4600 3000 50  0000 C CNN
	1    4600 3000
	0    -1   -1   0   
$EndComp
$Comp
L GND #PWR075
U 1 1 57651C6F
P 4950 3400
F 0 "#PWR075" H 4950 3150 50  0001 C CNN
F 1 "GND" H 4950 3250 50  0000 C CNN
F 2 "" H 4950 3400 50  0000 C CNN
F 3 "" H 4950 3400 50  0000 C CNN
	1    4950 3400
	1    0    0    -1  
$EndComp
Text HLabel 4100 3000 0    60   Input ~ 0
LOCAL
$Comp
L R R24
U 1 1 57651DC3
P 4600 3750
F 0 "R24" V 4680 3750 50  0000 C CNN
F 1 "510" V 4600 3750 50  0000 C CNN
F 2 "Resistors_SMD:R_0603" V 4530 3750 50  0001 C CNN
F 3 "" H 4600 3750 50  0000 C CNN
	1    4600 3750
	0    -1   -1   0   
$EndComp
$Comp
L GND #PWR076
U 1 1 57651DC9
P 4950 4150
F 0 "#PWR076" H 4950 3900 50  0001 C CNN
F 1 "GND" H 4950 4000 50  0000 C CNN
F 2 "" H 4950 4150 50  0000 C CNN
F 3 "" H 4950 4150 50  0000 C CNN
	1    4950 4150
	1    0    0    -1  
$EndComp
Text HLabel 4100 3750 0    60   Input ~ 0
KBD_LOCKED
$Comp
L R R25
U 1 1 57651DD6
P 6450 2200
F 0 "R25" V 6530 2200 50  0000 C CNN
F 1 "510" V 6450 2200 50  0000 C CNN
F 2 "Resistors_SMD:R_0603" V 6380 2200 50  0001 C CNN
F 3 "" H 6450 2200 50  0000 C CNN
	1    6450 2200
	0    -1   -1   0   
$EndComp
$Comp
L GND #PWR077
U 1 1 57651DDC
P 6800 2600
F 0 "#PWR077" H 6800 2350 50  0001 C CNN
F 1 "GND" H 6800 2450 50  0000 C CNN
F 2 "" H 6800 2600 50  0000 C CNN
F 3 "" H 6800 2600 50  0000 C CNN
	1    6800 2600
	1    0    0    -1  
$EndComp
Text HLabel 5950 2200 0    60   Input ~ 0
L1
Wire Wire Line
	4450 3000 4100 3000
Wire Wire Line
	4100 3750 4450 3750
Wire Wire Line
	4750 3750 4950 3750
Wire Wire Line
	6800 2200 6600 2200
Wire Wire Line
	6300 2200 5950 2200
$Comp
L R R26
U 1 1 57652373
P 6450 3000
F 0 "R26" V 6530 3000 50  0000 C CNN
F 1 "510" V 6450 3000 50  0000 C CNN
F 2 "Resistors_SMD:R_0603" V 6380 3000 50  0001 C CNN
F 3 "" H 6450 3000 50  0000 C CNN
	1    6450 3000
	0    -1   -1   0   
$EndComp
$Comp
L GND #PWR078
U 1 1 57652379
P 6800 3400
F 0 "#PWR078" H 6800 3150 50  0001 C CNN
F 1 "GND" H 6800 3250 50  0000 C CNN
F 2 "" H 6800 3400 50  0000 C CNN
F 3 "" H 6800 3400 50  0000 C CNN
	1    6800 3400
	1    0    0    -1  
$EndComp
Text HLabel 5950 3000 0    60   Input ~ 0
L2
$Comp
L R R27
U 1 1 57652386
P 6450 3750
F 0 "R27" V 6530 3750 50  0000 C CNN
F 1 "510" V 6450 3750 50  0000 C CNN
F 2 "Resistors_SMD:R_0603" V 6380 3750 50  0001 C CNN
F 3 "" H 6450 3750 50  0000 C CNN
	1    6450 3750
	0    -1   -1   0   
$EndComp
$Comp
L GND #PWR079
U 1 1 5765238C
P 6800 4150
F 0 "#PWR079" H 6800 3900 50  0001 C CNN
F 1 "GND" H 6800 4000 50  0000 C CNN
F 2 "" H 6800 4150 50  0000 C CNN
F 3 "" H 6800 4150 50  0000 C CNN
	1    6800 4150
	1    0    0    -1  
$EndComp
Text HLabel 5950 3750 0    60   Input ~ 0
L3
$Comp
L R R28
U 1 1 57652399
P 6450 4500
F 0 "R28" V 6530 4500 50  0000 C CNN
F 1 "510" V 6450 4500 50  0000 C CNN
F 2 "Resistors_SMD:R_0603" V 6380 4500 50  0001 C CNN
F 3 "" H 6450 4500 50  0000 C CNN
	1    6450 4500
	0    -1   -1   0   
$EndComp
$Comp
L GND #PWR080
U 1 1 5765239F
P 6800 4900
F 0 "#PWR080" H 6800 4650 50  0001 C CNN
F 1 "GND" H 6800 4750 50  0000 C CNN
F 2 "" H 6800 4900 50  0000 C CNN
F 3 "" H 6800 4900 50  0000 C CNN
	1    6800 4900
	1    0    0    -1  
$EndComp
Text HLabel 6000 4500 0    60   Input ~ 0
L4
Wire Wire Line
	6800 3000 6600 3000
Wire Wire Line
	6300 3000 5950 3000
Wire Wire Line
	5950 3750 6300 3750
Wire Wire Line
	6600 3750 6800 3750
Wire Wire Line
	6800 4500 6600 4500
Wire Wire Line
	6300 4500 6000 4500
$Comp
L LED_ALT D2
U 1 1 589D4B90
P 4950 2400
F 0 "D2" H 4950 2500 50  0000 C CNN
F 1 "ONLINE" H 4950 2300 50  0000 C CNN
F 2 "LEDs:LED_0603" H 4950 2400 50  0001 C CNN
F 3 "" H 4950 2400 50  0000 C CNN
	1    4950 2400
	0    1    1    0   
$EndComp
Wire Wire Line
	4950 2200 4950 2250
Wire Wire Line
	4950 2550 4950 2600
$Comp
L LED_ALT D3
U 1 1 589D4EF1
P 4950 3200
F 0 "D3" H 4950 3300 50  0000 C CNN
F 1 "LOCAL" H 4950 3100 50  0000 C CNN
F 2 "LEDs:LED_0603" H 4950 3200 50  0001 C CNN
F 3 "" H 4950 3200 50  0000 C CNN
	1    4950 3200
	0    1    1    0   
$EndComp
$Comp
L LED_ALT D4
U 1 1 589D4F86
P 4950 3950
F 0 "D4" H 4950 4050 50  0000 C CNN
F 1 "KBDLOCKED" H 4950 3850 50  0000 C CNN
F 2 "LEDs:LED_0603" H 4950 3950 50  0001 C CNN
F 3 "" H 4950 3950 50  0000 C CNN
	1    4950 3950
	0    1    1    0   
$EndComp
$Comp
L LED_ALT D7
U 1 1 589D4FE8
P 6800 3950
F 0 "D7" H 6800 4050 50  0000 C CNN
F 1 "L3" H 6800 3850 50  0000 C CNN
F 2 "LEDs:LED_0603" H 6800 3950 50  0001 C CNN
F 3 "" H 6800 3950 50  0000 C CNN
	1    6800 3950
	0    1    1    0   
$EndComp
$Comp
L LED_ALT D6
U 1 1 589D505F
P 6800 3200
F 0 "D6" H 6800 3300 50  0000 C CNN
F 1 "L2" H 6800 3100 50  0000 C CNN
F 2 "LEDs:LED_0603" H 6800 3200 50  0001 C CNN
F 3 "" H 6800 3200 50  0000 C CNN
	1    6800 3200
	0    1    1    0   
$EndComp
$Comp
L LED_ALT D5
U 1 1 589D50BF
P 6800 2400
F 0 "D5" H 6800 2500 50  0000 C CNN
F 1 "L1" H 6800 2300 50  0000 C CNN
F 2 "LEDs:LED_0603" H 6800 2400 50  0001 C CNN
F 3 "" H 6800 2400 50  0000 C CNN
	1    6800 2400
	0    1    1    0   
$EndComp
Wire Wire Line
	4950 3000 4950 3050
Wire Wire Line
	4950 3350 4950 3400
Wire Wire Line
	4950 3750 4950 3800
Wire Wire Line
	4950 4100 4950 4150
$Comp
L LED_ALT D8
U 1 1 589D54B5
P 6800 4700
F 0 "D8" H 6800 4800 50  0000 C CNN
F 1 "L4" H 6800 4600 50  0000 C CNN
F 2 "LEDs:LED_0603" H 6800 4700 50  0001 C CNN
F 3 "" H 6800 4700 50  0000 C CNN
	1    6800 4700
	0    1    1    0   
$EndComp
Wire Wire Line
	6800 3750 6800 3800
Wire Wire Line
	6800 4100 6800 4150
Wire Wire Line
	6800 4500 6800 4550
Wire Wire Line
	6800 4850 6800 4900
Wire Wire Line
	6800 3000 6800 3050
Wire Wire Line
	6800 3350 6800 3400
Wire Wire Line
	6800 2200 6800 2250
Wire Wire Line
	6800 2550 6800 2600
Wire Wire Line
	4950 3000 4750 3000
Wire Wire Line
	4950 2200 4750 2200
Wire Wire Line
	4450 2200 4150 2200
$EndSCHEMATC
