EESchema Schematic File Version 2
LIBS:power
LIBS:device
LIBS:transistors
LIBS:conn
LIBS:linear
LIBS:regul
LIBS:74xx
LIBS:cmos4000
LIBS:adc-dac
LIBS:memory
LIBS:xilinx
LIBS:microcontrollers
LIBS:dsp
LIBS:microchip
LIBS:analog_switches
LIBS:motorola
LIBS:texas
LIBS:intel
LIBS:audio
LIBS:interface
LIBS:digital-audio
LIBS:philips
LIBS:display
LIBS:cypress
LIBS:siliconi
LIBS:opto
LIBS:atmel
LIBS:contrib
LIBS:valves
LIBS:XPT2046
LIBS:NCS2211
LIBS:SSM3J328RLF
LIBS:IP4220CZ6
LIBS:LD3985M3xR
LIBS:RT9728Bx
LIBS:DIN_6
LIBS:5INCH_DPI_LCD
LIBS:RT4533
LIBS:STM32F767VxTx
LIBS:switches
LIBS:Mounting_Hole
LIBS:diy-vt100-cache
EELAYER 25 0
EELAYER END
$Descr A4 11693 8268
encoding utf-8
Sheet 11 11
Title "diy-VT100"
Date ""
Rev "0.4"
Comp "Mad Resistor"
Comment1 "https://www.madresistor.com/diy-vt100"
Comment2 "Copyright (C) 2016, 2017 Mad Resistor"
Comment3 ""
Comment4 ""
$EndDescr
$Comp
L C C4
U 1 1 58AE3559
P 9450 1900
F 0 "C4" H 9475 2000 50  0000 L CNN
F 1 "100nF" H 9475 1800 50  0000 L CNN
F 2 "Capacitors_SMD:C_0603" H 9488 1750 50  0001 C CNN
F 3 "" H 9450 1900 50  0000 C CNN
	1    9450 1900
	1    0    0    -1  
$EndComp
Text Label 9800 1650 2    60   ~ 0
VREF+
$Comp
L C C10
U 1 1 58AE3561
P 9850 1900
F 0 "C10" H 9875 2000 50  0000 L CNN
F 1 "1uF" H 9875 1800 50  0000 L CNN
F 2 "Capacitors_SMD:C_0603" H 9888 1750 50  0001 C CNN
F 3 "" H 9850 1900 50  0000 C CNN
	1    9850 1900
	1    0    0    -1  
$EndComp
$Comp
L C C11
U 1 1 58AE3568
P 10200 1900
F 0 "C11" H 10225 2000 50  0000 L CNN
F 1 "100nF" H 10225 1800 50  0000 L CNN
F 2 "Capacitors_SMD:C_0603" H 10238 1750 50  0001 C CNN
F 3 "" H 10200 1900 50  0000 C CNN
	1    10200 1900
	1    0    0    -1  
$EndComp
Text Label 10550 1650 2    60   ~ 0
VDDA
$Comp
L C C15
U 1 1 58AE3570
P 10600 1900
F 0 "C15" H 10625 2000 50  0000 L CNN
F 1 "1uF" H 10625 1800 50  0000 L CNN
F 2 "Capacitors_SMD:C_0603" H 10638 1750 50  0001 C CNN
F 3 "" H 10600 1900 50  0000 C CNN
	1    10600 1900
	1    0    0    -1  
$EndComp
$Comp
L C C12
U 1 1 58AE3577
P 9450 3400
F 0 "C12" H 9475 3500 50  0000 L CNN
F 1 "2.2uF" H 9475 3300 50  0000 L CNN
F 2 "Capacitors_SMD:C_0805" H 9488 3250 50  0001 C CNN
F 3 "" H 9450 3400 50  0000 C CNN
	1    9450 3400
	1    0    0    -1  
$EndComp
Text Label 9850 3150 2    60   ~ 0
VCAP1
Text Label 9850 3650 2    60   ~ 0
VSS-49
$Comp
L C C6
U 1 1 58AE3580
P 10200 2650
F 0 "C6" H 10225 2750 50  0000 L CNN
F 1 "100nF" H 10225 2550 50  0000 L CNN
F 2 "Capacitors_SMD:C_0603" H 10238 2500 50  0001 C CNN
F 3 "" H 10200 2650 50  0000 C CNN
	1    10200 2650
	1    0    0    -1  
$EndComp
Text Label 10600 2400 2    60   ~ 0
VDD-50
Text Label 10600 2900 2    60   ~ 0
VSS-49
$Comp
L C C5
U 1 1 58AE3589
P 9450 2650
F 0 "C5" H 9475 2750 50  0000 L CNN
F 1 "100nF" H 9475 2550 50  0000 L CNN
F 2 "Capacitors_SMD:C_0603" H 9488 2500 50  0001 C CNN
F 3 "" H 9450 2650 50  0000 C CNN
	1    9450 2650
	1    0    0    -1  
$EndComp
Text Label 9850 2400 2    60   ~ 0
VDD-27
Text Label 9850 2900 2    60   ~ 0
VSS-26
$Comp
L C C3
U 1 1 58AE3592
P 9450 1150
F 0 "C3" H 9475 1250 50  0000 L CNN
F 1 "100nF" H 9475 1050 50  0000 L CNN
F 2 "Capacitors_SMD:C_0603" H 9488 1000 50  0001 C CNN
F 3 "" H 9450 1150 50  0000 C CNN
	1    9450 1150
	1    0    0    -1  
$EndComp
Text Label 9850 900  2    60   ~ 0
VDD-11
$Comp
L C C9
U 1 1 58AE359A
P 10250 4200
F 0 "C9" H 10275 4300 50  0000 L CNN
F 1 "100nF" H 10275 4100 50  0000 L CNN
F 2 "Capacitors_SMD:C_0603" H 10288 4050 50  0001 C CNN
F 3 "" H 10250 4200 50  0000 C CNN
	1    10250 4200
	1    0    0    -1  
$EndComp
Text Label 10650 3950 2    60   ~ 0
VDD-100
Text Label 10650 4450 2    60   ~ 0
VSS-99
Text Label 10500 2150 2    60   ~ 0
VSSA
Text Label 9750 2150 2    60   ~ 0
VSSA
Text Label 9850 1400 2    60   ~ 0
VSS-10
$Comp
L C C8
U 1 1 58AE35A6
P 9450 4200
F 0 "C8" H 9475 4300 50  0000 L CNN
F 1 "100nF" H 9475 4100 50  0000 L CNN
F 2 "Capacitors_SMD:C_0603" H 9488 4050 50  0001 C CNN
F 3 "" H 9450 4200 50  0000 C CNN
	1    9450 4200
	1    0    0    -1  
$EndComp
Text Label 9850 3950 2    60   ~ 0
VDD-75
Text Label 9850 4450 2    60   ~ 0
VSS-74
$Comp
L C C14
U 1 1 58AE35AF
P 10200 3400
F 0 "C14" H 10225 3500 50  0000 L CNN
F 1 "2.2uF" H 10225 3300 50  0000 L CNN
F 2 "Capacitors_SMD:C_0805" H 10238 3250 50  0001 C CNN
F 3 "" H 10200 3400 50  0000 C CNN
	1    10200 3400
	1    0    0    -1  
$EndComp
Text Label 10600 3150 2    60   ~ 0
VCAP2
Text Label 10600 3650 2    60   ~ 0
VSS-74
Text Label 2100 650  3    60   ~ 0
VBAT
Text Label 2200 650  3    60   ~ 0
VDD-11
Text Label 2300 650  3    60   ~ 0
VREF+
Text Label 2400 650  3    60   ~ 0
VDDA
Text Label 2500 650  3    60   ~ 0
VDD-27
Text Label 2600 650  3    60   ~ 0
VDD-50
Text Label 2700 650  3    60   ~ 0
VDD-75
Text Label 2800 650  3    60   ~ 0
VDD-100
Text Label 3000 650  3    60   ~ 0
VCAP1
Text Label 3100 650  3    60   ~ 0
VCAP2
Text Label 2400 7650 1    60   ~ 0
VSS-10
Text Label 2500 7650 1    60   ~ 0
VSSA
Text Label 2600 7650 1    60   ~ 0
VSS-26
Text Label 2700 7650 1    60   ~ 0
VSS-49
Text Label 2800 7650 1    60   ~ 0
VSS-74
Text Label 2900 7650 1    60   ~ 0
VSS-99
$Comp
L GND #PWR0108
U 1 1 58AE35D3
P 3100 7450
F 0 "#PWR0108" H 3100 7200 50  0001 C CNN
F 1 "GND" H 3100 7300 50  0000 C CNN
F 2 "" H 3100 7450 50  0000 C CNN
F 3 "" H 3100 7450 50  0000 C CNN
	1    3100 7450
	1    0    0    -1  
$EndComp
Text Label 1000 3200 0    60   ~ 0
JTMS-SWDIO
Text Label 1000 3300 0    60   ~ 0
JTCK-SWDCLK
Text Label 1000 3400 0    60   ~ 0
JTDI
Text Label 4200 5600 2    60   ~ 0
BOOT0
Text Label 4200 5200 2    60   ~ 0
OSC_IN
Text Label 4200 5300 2    60   ~ 0
OSC_OUT
Text Label 1000 3850 0    60   ~ 0
JTDO
Text Label 1000 3950 0    60   ~ 0
NJTRST
$Comp
L Crystal Y1
U 1 1 58AE35EB
P 7700 2950
F 0 "Y1" H 7700 3100 50  0000 C CNN
F 1 "16Mhz" H 7700 2800 50  0000 C CNN
F 2 "Crystals:Crystal_SMD_HC49-SD" H 7700 2950 50  0001 C CNN
F 3 "" H 7700 2950 50  0000 C CNN
	1    7700 2950
	1    0    0    -1  
$EndComp
$Comp
L C C2
U 1 1 58AE35F2
P 8050 3100
F 0 "C2" H 8075 3200 50  0000 L CNN
F 1 "27pF" H 8075 3000 50  0000 L CNN
F 2 "Capacitors_SMD:C_0603" H 8088 2950 50  0001 C CNN
F 3 "" H 8050 3100 50  0000 C CNN
	1    8050 3100
	1    0    0    -1  
$EndComp
$Comp
L C C1
U 1 1 58AE35F9
P 7300 3100
F 0 "C1" H 7325 3200 50  0000 L CNN
F 1 "27pF" H 7325 3000 50  0000 L CNN
F 2 "Capacitors_SMD:C_0603" H 7338 2950 50  0001 C CNN
F 3 "" H 7300 3100 50  0000 C CNN
	1    7300 3100
	1    0    0    -1  
$EndComp
Text Label 6950 2950 0    60   ~ 0
OSC_IN
Text Label 9000 2950 2    60   ~ 0
OSC_OUT
$Comp
L GND #PWR0109
U 1 1 58AE3602
P 7300 3250
F 0 "#PWR0109" H 7300 3000 50  0001 C CNN
F 1 "GND" H 7300 3100 50  0000 C CNN
F 2 "" H 7300 3250 50  0000 C CNN
F 3 "" H 7300 3250 50  0000 C CNN
	1    7300 3250
	1    0    0    -1  
$EndComp
$Comp
L GND #PWR0110
U 1 1 58AE3608
P 8050 3250
F 0 "#PWR0110" H 8050 3000 50  0001 C CNN
F 1 "GND" H 8050 3100 50  0000 C CNN
F 2 "" H 8050 3250 50  0000 C CNN
F 3 "" H 8050 3250 50  0000 C CNN
	1    8050 3250
	1    0    0    -1  
$EndComp
$Comp
L CONN_01X02 P1
U 1 1 58AE360E
P 6050 1050
F 0 "P1" H 6050 1200 50  0000 C CNN
F 1 "BOOT0" V 6150 1050 50  0000 C CNN
F 2 "Pin_Headers:Pin_Header_Straight_1x02_Pitch2.54mm_SMD_Pin1Left" H 6050 1050 50  0001 C CNN
F 3 "" H 6050 1050 50  0000 C CNN
	1    6050 1050
	-1   0    0    -1  
$EndComp
Text Label 6700 1100 2    60   ~ 0
BOOT0
$Comp
L R R1
U 1 1 58AE3616
P 6350 1250
F 0 "R1" V 6430 1250 50  0000 C CNN
F 1 "10K" V 6350 1250 50  0000 C CNN
F 2 "Resistors_SMD:R_0603" V 6280 1250 50  0001 C CNN
F 3 "" H 6350 1250 50  0000 C CNN
	1    6350 1250
	1    0    0    -1  
$EndComp
$Comp
L GND #PWR0111
U 1 1 58AE361D
P 6350 1400
F 0 "#PWR0111" H 6350 1150 50  0001 C CNN
F 1 "GND" H 6350 1250 50  0000 C CNN
F 2 "" H 6350 1400 50  0000 C CNN
F 3 "" H 6350 1400 50  0000 C CNN
	1    6350 1400
	1    0    0    -1  
$EndComp
$Comp
L VDD #PWR0112
U 1 1 58AE3636
P 1850 850
F 0 "#PWR0112" H 1850 700 50  0001 C CNN
F 1 "VDD" H 1850 1000 50  0000 C CNN
F 2 "" H 1850 850 50  0000 C CNN
F 3 "" H 1850 850 50  0000 C CNN
	1    1850 850 
	1    0    0    -1  
$EndComp
$Comp
L VDD #PWR0113
U 1 1 58AE363C
P 6350 950
F 0 "#PWR0113" H 6350 800 50  0001 C CNN
F 1 "VDD" H 6350 1100 50  0000 C CNN
F 2 "" H 6350 950 50  0000 C CNN
F 3 "" H 6350 950 50  0000 C CNN
	1    6350 950 
	1    0    0    -1  
$EndComp
$Comp
L CONN_02X10 P3
U 1 1 58AE3642
P 8350 1450
F 0 "P3" H 8350 2000 50  0000 C CNN
F 1 "JTAG/SWD" V 8350 1450 50  0000 C CNN
F 2 "Pin_Headers:Pin_Header_Straight_2x10_Pitch2.54mm_SMD" H 8350 250 50  0001 C CNN
F 3 "" H 8350 250 50  0000 C CNN
	1    8350 1450
	1    0    0    -1  
$EndComp
$Comp
L VDD #PWR0114
U 1 1 58AE3649
P 7900 950
F 0 "#PWR0114" H 7900 800 50  0001 C CNN
F 1 "VDD" H 7900 1100 50  0000 C CNN
F 2 "" H 7900 950 50  0000 C CNN
F 3 "" H 7900 950 50  0000 C CNN
	1    7900 950 
	1    0    0    -1  
$EndComp
$Comp
L VDD #PWR0115
U 1 1 58AE364F
P 8850 950
F 0 "#PWR0115" H 8850 800 50  0001 C CNN
F 1 "VDD" H 8850 1100 50  0000 C CNN
F 2 "" H 8850 950 50  0000 C CNN
F 3 "" H 8850 950 50  0000 C CNN
	1    8850 950 
	1    0    0    -1  
$EndComp
Text Label 7500 1100 0    60   ~ 0
NJTRST
Text Label 7500 1200 0    60   ~ 0
JTDI
Text Label 7500 1300 0    60   ~ 0
JTMS-SWDIO
Text Label 7500 1400 0    60   ~ 0
JTCK-SWDCLK
Text Label 7500 1600 0    60   ~ 0
JTDO
Text Label 7500 1700 0    60   ~ 0
NRST
$Comp
L GND #PWR0116
U 1 1 58AE365B
P 8850 2250
F 0 "#PWR0116" H 8850 2000 50  0001 C CNN
F 1 "GND" H 8850 2100 50  0000 C CNN
F 2 "" H 8850 2250 50  0000 C CNN
F 3 "" H 8850 2250 50  0000 C CNN
	1    8850 2250
	1    0    0    -1  
$EndComp
$Comp
L R R4
U 1 1 58AE3661
P 7700 2100
F 0 "R4" V 7780 2100 50  0000 C CNN
F 1 "10K" V 7700 2100 50  0000 C CNN
F 2 "Resistors_SMD:R_0603" V 7630 2100 50  0001 C CNN
F 3 "" H 7700 2100 50  0000 C CNN
	1    7700 2100
	1    0    0    -1  
$EndComp
$Comp
L R R3
U 1 1 58AE3668
P 7500 2100
F 0 "R3" V 7580 2100 50  0000 C CNN
F 1 "10K" V 7500 2100 50  0000 C CNN
F 2 "Resistors_SMD:R_0603" V 7430 2100 50  0001 C CNN
F 3 "" H 7500 2100 50  0000 C CNN
	1    7500 2100
	1    0    0    -1  
$EndComp
$Comp
L R R2
U 1 1 58AE366F
P 7300 2100
F 0 "R2" V 7380 2100 50  0000 C CNN
F 1 "10K" V 7300 2100 50  0000 C CNN
F 2 "Resistors_SMD:R_0603" V 7230 2100 50  0001 C CNN
F 3 "" H 7300 2100 50  0000 C CNN
	1    7300 2100
	1    0    0    -1  
$EndComp
$Comp
L GND #PWR0117
U 1 1 58AE3676
P 7300 2250
F 0 "#PWR0117" H 7300 2000 50  0001 C CNN
F 1 "GND" H 7300 2100 50  0000 C CNN
F 2 "" H 7300 2250 50  0000 C CNN
F 3 "" H 7300 2250 50  0000 C CNN
	1    7300 2250
	1    0    0    -1  
$EndComp
$Comp
L GND #PWR0118
U 1 1 58AE367C
P 7500 2250
F 0 "#PWR0118" H 7500 2000 50  0001 C CNN
F 1 "GND" H 7500 2100 50  0000 C CNN
F 2 "" H 7500 2250 50  0000 C CNN
F 3 "" H 7500 2250 50  0000 C CNN
	1    7500 2250
	1    0    0    -1  
$EndComp
$Comp
L GND #PWR0119
U 1 1 58AE3682
P 7700 2250
F 0 "#PWR0119" H 7700 2000 50  0001 C CNN
F 1 "GND" H 7700 2100 50  0000 C CNN
F 2 "" H 7700 2250 50  0000 C CNN
F 3 "" H 7700 2250 50  0000 C CNN
	1    7700 2250
	1    0    0    -1  
$EndComp
Text Label 1000 2000 0    60   ~ 0
LTDC_R2
Text Label 1000 3000 0    60   ~ 0
LTDC_R4
Text Label 1000 2500 0    60   ~ 0
LTDC_G2
Text Label 1000 4350 0    60   ~ 0
LTDC_B6
Text Label 1000 4450 0    60   ~ 0
LTDC_B7
Text Label 1000 4550 0    60   ~ 0
LTDC_G4
Text Label 1000 4650 0    60   ~ 0
LTDC_G5
Text Label 1000 5900 0    60   ~ 0
LTDC_G6
Text Label 4200 2900 2    60   ~ 0
LTDC_B3
Text Label 4200 5050 2    60   ~ 0
LTDC_R7
Text Label 1000 3550 0    60   ~ 0
LTDC_R3
Text HLabel 4200 6700 2    60   Output ~ 0
LTDC_R[0..7]
Entry Wire Line
	4050 6800 4150 6900
Entry Wire Line
	4050 6900 4150 7000
Entry Wire Line
	4050 7000 4150 7100
Entry Wire Line
	4050 7100 4150 7200
Entry Wire Line
	4050 7200 4150 7300
Entry Wire Line
	4050 7300 4150 7400
Entry Wire Line
	4050 7400 4150 7500
Entry Wire Line
	4050 7500 4150 7600
Text HLabel 5200 6700 2    60   Output ~ 0
LTDC_G[0..7]
Entry Wire Line
	5050 6800 5150 6900
Entry Wire Line
	5050 6900 5150 7000
Entry Wire Line
	5050 7000 5150 7100
Entry Wire Line
	5050 7100 5150 7200
Entry Wire Line
	5050 7200 5150 7300
Entry Wire Line
	5050 7300 5150 7400
Entry Wire Line
	5050 7400 5150 7500
Entry Wire Line
	5050 7500 5150 7600
Text HLabel 6200 6700 2    60   Output ~ 0
LTDC_B[0..7]
Entry Wire Line
	6050 6800 6150 6900
Entry Wire Line
	6050 6900 6150 7000
Entry Wire Line
	6050 7000 6150 7100
Entry Wire Line
	6050 7100 6150 7200
Entry Wire Line
	6050 7200 6150 7300
Entry Wire Line
	6050 7300 6150 7400
Entry Wire Line
	6050 7400 6150 7500
Entry Wire Line
	6050 7500 6150 7600
$Comp
L GND #PWR0120
U 1 1 58AFCC06
P 6300 2150
F 0 "#PWR0120" H 6300 1900 50  0001 C CNN
F 1 "GND" H 6300 2000 50  0000 C CNN
F 2 "" H 6300 2150 50  0000 C CNN
F 3 "" H 6300 2150 50  0000 C CNN
	1    6300 2150
	1    0    0    -1  
$EndComp
Text HLabel 1650 4950 0    60   BiDi ~ 0
OTG_HS_D-
Text HLabel 1650 5050 0    60   BiDi ~ 0
OTG_HS_D+
Text HLabel 1650 2300 0    60   Output ~ 0
LTDC_VSYNC
Text HLabel 1650 2400 0    60   Output ~ 0
DAC_OUT2
Text HLabel 1650 5800 0    60   Output ~ 0
LTDC_HSYNC
Text HLabel 3550 4950 2    60   Output ~ 0
LTDC_CLK
Text HLabel 3550 4850 2    60   Output ~ 0
LTDC_DE
Wire Wire Line
	9450 1750 9450 1650
Wire Wire Line
	9450 1650 9850 1650
Wire Wire Line
	9450 2050 9450 2150
Wire Wire Line
	9450 2150 9850 2150
Wire Wire Line
	9850 2150 9850 2050
Wire Wire Line
	9850 1650 9850 1750
Wire Wire Line
	10200 1650 10600 1650
Wire Wire Line
	10200 2050 10200 2150
Wire Wire Line
	10200 2150 10600 2150
Wire Wire Line
	10600 2150 10600 2050
Wire Wire Line
	9450 3250 9450 3150
Wire Wire Line
	9450 3150 9850 3150
Wire Wire Line
	9450 3650 9850 3650
Wire Wire Line
	10200 2500 10200 2400
Wire Wire Line
	10200 2400 10600 2400
Wire Wire Line
	10200 2900 10600 2900
Wire Wire Line
	9450 2500 9450 2400
Wire Wire Line
	9450 2400 9850 2400
Wire Wire Line
	9450 2900 9850 2900
Wire Wire Line
	9450 1000 9450 900 
Wire Wire Line
	9450 900  9850 900 
Wire Wire Line
	9450 1300 9450 1400
Wire Wire Line
	10250 4050 10250 3950
Wire Wire Line
	10250 3950 10650 3950
Wire Wire Line
	10250 4450 10650 4450
Wire Wire Line
	10250 4350 10250 4450
Wire Wire Line
	9450 2900 9450 2800
Wire Wire Line
	9450 1400 9850 1400
Wire Wire Line
	9450 4050 9450 3950
Wire Wire Line
	9450 3950 9850 3950
Wire Wire Line
	9450 4350 9450 4450
Wire Wire Line
	9450 4450 9850 4450
Wire Wire Line
	10200 3250 10200 3150
Wire Wire Line
	10200 3150 10600 3150
Wire Wire Line
	10200 3650 10600 3650
Wire Wire Line
	9450 3650 9450 3550
Wire Wire Line
	10200 2800 10200 2900
Wire Wire Line
	10200 3650 10200 3550
Wire Wire Line
	10600 1650 10600 1750
Wire Wire Line
	10200 1750 10200 1650
Wire Wire Line
	2100 650  2100 1250
Wire Wire Line
	2200 650  2200 1250
Wire Wire Line
	2300 650  2300 1250
Wire Wire Line
	2400 650  2400 1250
Wire Wire Line
	2500 650  2500 1250
Wire Wire Line
	2600 650  2600 1250
Wire Wire Line
	2700 650  2700 1250
Wire Wire Line
	2800 650  2800 1250
Wire Wire Line
	3000 650  3000 1250
Wire Wire Line
	3100 650  3100 1250
Connection ~ 2200 1150
Connection ~ 2100 1150
Connection ~ 2300 1150
Connection ~ 2400 1150
Connection ~ 2500 1150
Connection ~ 2600 1150
Connection ~ 2700 1150
Connection ~ 2800 1150
Wire Wire Line
	1850 1150 1850 850 
Wire Wire Line
	2400 7100 2400 7650
Wire Wire Line
	2500 7100 2500 7650
Wire Wire Line
	2600 7100 2600 7650
Wire Wire Line
	2700 7100 2700 7650
Wire Wire Line
	2800 7100 2800 7650
Wire Wire Line
	2900 7100 2900 7650
Connection ~ 2400 7200
Connection ~ 2500 7200
Connection ~ 2600 7200
Connection ~ 2700 7200
Connection ~ 2800 7200
Connection ~ 2900 7200
Wire Wire Line
	2400 7200 3100 7200
Wire Wire Line
	3100 7200 3100 7450
Wire Notes Line
	9250 700  9250 4700
Wire Notes Line
	9250 4700 10950 4700
Wire Notes Line
	10950 4700 10950 700 
Wire Notes Line
	10950 700  9250 700 
Wire Wire Line
	1000 3200 1650 3200
Wire Wire Line
	1000 3300 1650 3300
Wire Wire Line
	1000 3400 1650 3400
Wire Wire Line
	3550 5700 3900 5700
Wire Wire Line
	3550 5600 4200 5600
Wire Wire Line
	3550 5200 4200 5200
Wire Wire Line
	4200 5300 3550 5300
Wire Wire Line
	1650 3950 1000 3950
Wire Wire Line
	1650 3850 1000 3850
Wire Wire Line
	7850 2950 8300 2950
Wire Wire Line
	6950 2950 7550 2950
Connection ~ 8050 2950
Connection ~ 7300 2950
Wire Wire Line
	6250 1000 6350 1000
Wire Wire Line
	6350 1000 6350 950 
Wire Wire Line
	6250 1100 6700 1100
Connection ~ 6350 1100
Wire Wire Line
	8100 1000 7900 1000
Wire Wire Line
	7900 1000 7900 950 
Wire Wire Line
	8600 1000 8850 1000
Wire Wire Line
	8850 1000 8850 950 
Wire Wire Line
	7500 1100 8100 1100
Wire Wire Line
	7500 1200 8100 1200
Wire Wire Line
	8100 1300 7500 1300
Wire Wire Line
	7500 1400 8100 1400
Wire Wire Line
	7500 1700 8100 1700
Wire Wire Line
	8100 1600 7500 1600
Wire Wire Line
	8600 1100 8850 1100
Wire Wire Line
	8850 1100 8850 2250
Wire Wire Line
	8600 1900 8850 1900
Connection ~ 8850 1900
Wire Wire Line
	8600 1800 8850 1800
Connection ~ 8850 1800
Wire Wire Line
	8600 1700 8850 1700
Connection ~ 8850 1700
Wire Wire Line
	8600 1600 8850 1600
Connection ~ 8850 1600
Wire Wire Line
	8600 1500 8850 1500
Connection ~ 8850 1500
Wire Wire Line
	8600 1400 8850 1400
Connection ~ 8850 1400
Wire Wire Line
	8600 1300 8850 1300
Connection ~ 8850 1300
Wire Wire Line
	8600 1200 8850 1200
Connection ~ 8850 1200
Wire Wire Line
	8100 1900 7700 1900
Wire Wire Line
	7700 1900 7700 1950
Wire Wire Line
	8100 1800 7500 1800
Wire Wire Line
	7500 1800 7500 1950
Wire Wire Line
	8100 1500 7300 1500
Wire Wire Line
	7300 1500 7300 1950
Wire Wire Line
	1650 2000 1000 2000
Wire Wire Line
	1000 2500 1650 2500
Wire Wire Line
	1650 3000 1000 3000
Wire Wire Line
	1650 4350 1000 4350
Wire Wire Line
	1000 4450 1650 4450
Wire Wire Line
	1000 4550 1650 4550
Wire Wire Line
	1000 4650 1650 4650
Wire Wire Line
	4200 2900 3550 2900
Wire Wire Line
	3550 5050 4200 5050
Wire Wire Line
	1650 5900 1000 5900
Wire Wire Line
	1000 3550 1650 3550
Wire Bus Line
	4050 6700 4200 6700
Wire Bus Line
	4050 6700 4050 7500
Wire Wire Line
	4150 6900 4850 6900
Wire Wire Line
	4150 7000 4850 7000
Wire Wire Line
	4150 7100 4850 7100
Wire Wire Line
	4150 7200 4850 7200
Wire Wire Line
	4150 7300 4850 7300
Wire Wire Line
	4150 7400 4850 7400
Wire Wire Line
	4150 7600 4850 7600
Wire Bus Line
	5050 6700 5200 6700
Wire Bus Line
	5050 6700 5050 7500
Wire Wire Line
	5150 6900 5850 6900
Wire Wire Line
	5150 7000 5850 7000
Wire Wire Line
	5150 7100 5850 7100
Wire Wire Line
	5150 7200 5850 7200
Wire Wire Line
	5150 7300 5850 7300
Wire Wire Line
	5150 7400 5850 7400
Wire Wire Line
	5150 7500 5850 7500
Wire Wire Line
	5150 7600 5850 7600
Wire Bus Line
	6050 6700 6200 6700
Wire Bus Line
	6050 6700 6050 7500
Wire Wire Line
	6150 6900 6850 6900
Wire Wire Line
	6150 7000 6850 7000
Wire Wire Line
	6150 7100 6850 7100
Wire Wire Line
	6150 7200 6850 7200
Wire Wire Line
	6150 7300 6850 7300
Wire Wire Line
	6150 7400 6850 7400
Wire Wire Line
	6150 7500 6850 7500
Wire Wire Line
	6150 7600 6850 7600
Wire Notes Line
	5750 2400 6850 2400
Wire Notes Line
	6850 2400 6850 1850
Wire Notes Line
	6850 1850 5750 1850
Wire Notes Line
	5750 1850 5750 2400
Wire Notes Line
	5750 700  5750 1650
Wire Notes Line
	5750 1650 6850 1650
Wire Notes Line
	6850 1650 6850 700 
Wire Notes Line
	6850 700  5750 700 
Wire Notes Line
	6850 2700 6850 3500
Wire Notes Line
	6850 3500 9050 3500
Wire Notes Line
	9050 3500 9050 2700
Wire Notes Line
	9050 2700 6850 2700
Wire Notes Line
	7150 700  7150 2550
Wire Notes Line
	7150 2550 9050 2550
Wire Notes Line
	9050 2550 9050 700 
Wire Notes Line
	9050 700  7150 700 
$Comp
L CONN_01X02 P2
U 1 1 58B2F835
P 5950 2050
F 0 "P2" H 5950 2200 50  0000 C CNN
F 1 "DEBUG" V 6050 2050 50  0000 C CNN
F 2 "Pin_Headers:Pin_Header_Straight_1x02_Pitch2.54mm_SMD_Pin1Left" H 5950 2050 50  0001 C CNN
F 3 "" H 5950 2050 50  0000 C CNN
	1    5950 2050
	-1   0    0    1   
$EndComp
Wire Wire Line
	6150 2100 6300 2100
Wire Wire Line
	6300 2100 6300 2150
Wire Wire Line
	6150 2000 6700 2000
$Comp
L R R32
U 1 1 58B13DA1
P 8450 2950
F 0 "R32" V 8530 2950 50  0000 C CNN
F 1 "220" V 8450 2950 50  0000 C CNN
F 2 "Resistors_SMD:R_0603" V 8380 2950 50  0001 C CNN
F 3 "" H 8450 2950 50  0000 C CNN
	1    8450 2950
	0    1    1    0   
$EndComp
Wire Wire Line
	8600 2950 9000 2950
$Comp
L TEST TP26
U 1 1 58B317D3
P 8600 3900
F 0 "TP26" H 8600 4200 50  0000 C BNN
F 1 "TEST" H 8600 4150 50  0000 C CNN
F 2 "Measurement_Points:Measurement_Point_Round-TH_Small" H 8600 3900 50  0001 C CNN
F 3 "" H 8600 3900 50  0000 C CNN
	1    8600 3900
	0    -1   -1   0   
$EndComp
Text Label 9000 4050 2    60   ~ 0
BOOT0
Wire Wire Line
	9000 4050 8600 4050
$Comp
L TEST TP27
U 1 1 58B31EDA
P 8600 4050
F 0 "TP27" H 8600 4350 50  0000 C BNN
F 1 "TEST" H 8600 4300 50  0000 C CNN
F 2 "Measurement_Points:Measurement_Point_Round-TH_Small" H 8600 4050 50  0001 C CNN
F 3 "" H 8600 4050 50  0000 C CNN
	1    8600 4050
	0    -1   -1   0   
$EndComp
Wire Wire Line
	1850 1150 2800 1150
$Comp
L GND #PWR0121
U 1 1 58B2EAB1
P 8000 4000
F 0 "#PWR0121" H 8000 3750 50  0001 C CNN
F 1 "GND" H 8000 3850 50  0000 C CNN
F 2 "" H 8000 4000 50  0000 C CNN
F 3 "" H 8000 4000 50  0000 C CNN
	1    8000 4000
	1    0    0    -1  
$EndComp
$Comp
L TEST TP35
U 1 1 58B2EAFB
P 8000 4000
F 0 "TP35" H 8000 4300 50  0000 C BNN
F 1 "TEST" H 8000 4250 50  0000 C CNN
F 2 "Measurement_Points:Measurement_Point_Round-TH_Small" H 8000 4000 50  0001 C CNN
F 3 "" H 8000 4000 50  0000 C CNN
	1    8000 4000
	1    0    0    -1  
$EndComp
$Comp
L STM32F767VxTx U1
U 1 1 58D34ACF
P 2650 4200
F 0 "U1" H 2650 4100 50  0000 C CNN
F 1 "STM32F767VxTx" H 2650 4300 50  0000 C CNN
F 2 "Housings_QFP:LQFP-100_14x14mm_Pitch0.5mm" H 2650 4200 50  0001 C CNN
F 3 "DOCUMENTATION" H 2650 4200 50  0001 C CNN
	1    2650 4200
	1    0    0    -1  
$EndComp
Text Label 4200 4750 2    60   ~ 0
LTDC_B4
Wire Wire Line
	4200 4750 3550 4750
Text Label 1000 2200 0    60   ~ 0
LTDC_B5
Wire Wire Line
	1000 2200 1650 2200
$Comp
L C C7
U 1 1 58D51C8A
P 10200 1150
F 0 "C7" H 10225 1250 50  0000 L CNN
F 1 "4.7uF" H 10225 1050 50  0000 L CNN
F 2 "Capacitors_SMD:C_0805" H 10238 1000 50  0001 C CNN
F 3 "" H 10200 1150 50  0000 C CNN
	1    10200 1150
	1    0    0    -1  
$EndComp
Text Label 10600 900  2    60   ~ 0
VDD-11
Text Label 10600 1400 2    60   ~ 0
VSS-10
Wire Wire Line
	10200 1000 10200 900 
Wire Wire Line
	10200 900  10600 900 
Wire Wire Line
	10200 1300 10200 1400
Wire Wire Line
	10200 1400 10600 1400
Text Notes 10450 1150 0    60   ~ 0
Any VDD
Wire Notes Line
	4450 6850 4850 6850
Wire Wire Line
	4350 6900 4350 7100
Connection ~ 4350 6900
Wire Wire Line
	4150 7500 4850 7500
Text Label 4850 6900 2    60   ~ 0
LTDC_R0
Text Label 4850 7000 2    60   ~ 0
LTDC_R1
Text Label 4850 7100 2    60   ~ 0
LTDC_R2
Text Label 4850 7200 2    60   ~ 0
LTDC_R3
Text Label 4850 7300 2    60   ~ 0
LTDC_R4
Text Label 4850 7400 2    60   ~ 0
LTDC_R5
Text Label 4850 7500 2    60   ~ 0
LTDC_R6
Text Label 4850 7600 2    60   ~ 0
LTDC_R7
Text Label 5850 6900 2    60   ~ 0
LTDC_G0
Text Label 5850 7000 2    60   ~ 0
LTDC_G1
Text Label 5850 7100 2    60   ~ 0
LTDC_G2
Text Label 5850 7200 2    60   ~ 0
LTDC_G3
Text Label 5850 7300 2    60   ~ 0
LTDC_G4
Text Label 5850 7400 2    60   ~ 0
LTDC_G5
Text Label 5850 7500 2    60   ~ 0
LTDC_G6
Text Label 5850 7600 2    60   ~ 0
LTDC_G7
Text Label 6850 6900 2    60   ~ 0
LTDC_B0
Text Label 6850 7000 2    60   ~ 0
LTDC_B1
Text Label 6850 7100 2    60   ~ 0
LTDC_B2
Text Label 6850 7200 2    60   ~ 0
LTDC_B3
Text Label 6850 7300 2    60   ~ 0
LTDC_B4
Text Label 6850 7400 2    60   ~ 0
LTDC_B5
Text Label 6850 7500 2    60   ~ 0
LTDC_B6
Text Label 6850 7600 2    60   ~ 0
LTDC_B7
Text HLabel 3550 3100 2    60   Output ~ 0
I2C4_SCL
Text HLabel 3550 3200 2    60   BiDi ~ 0
I2C4_SDA
Wire Wire Line
	1650 2700 1000 2700
Text Label 1000 2700 0    60   ~ 0
LTDC_R6
Text HLabel 3550 3750 2    60   Output ~ 0
SPI4_SCK
Text HLabel 3550 4050 2    60   Input ~ 0
SPI4_MISO
Text HLabel 3550 4150 2    60   Output ~ 0
SPI4_MOSI
Text HLabel 1650 2800 0    60   Output ~ 0
USART1_TX
Text HLabel 1650 2900 0    60   Input ~ 0
USART1_RX
Wire Wire Line
	1650 3100 1000 3100
Text Label 1000 3100 0    60   ~ 0
LTDC_R5
Connection ~ 4350 7100
Wire Wire Line
	5350 6900 5350 7100
Connection ~ 5350 6900
Connection ~ 5350 7100
Wire Wire Line
	6350 6900 6350 7100
Connection ~ 6350 6900
Connection ~ 6350 7100
Wire Notes Line
	4450 6950 4850 6950
Wire Notes Line
	5450 6850 5850 6850
Wire Notes Line
	5850 6950 5450 6950
Wire Notes Line
	6450 7050 6850 7050
Wire Notes Line
	6450 6950 6850 6950
Wire Wire Line
	1650 4050 1000 4050
Text Label 1000 4050 0    60   ~ 0
LTDC_G7
Wire Wire Line
	3550 3950 4200 3950
Text Label 4200 3950 2    60   ~ 0
LTDC_B2
Text Label 4200 4650 2    60   ~ 0
LTDC_G3
Wire Wire Line
	3550 4650 4200 4650
Text HLabel 1650 4150 0    60   BiDi ~ 0
PB6
Text HLabel 1650 4250 0    60   BiDi ~ 0
PB7
Wire Wire Line
	6250 7000 6250 7200
Connection ~ 6250 7200
Connection ~ 6250 7000
Wire Wire Line
	5250 7000 5250 7200
Connection ~ 5250 7200
Connection ~ 5250 7000
Wire Wire Line
	4250 7000 4250 7200
Connection ~ 4250 7200
Connection ~ 4250 7000
Text HLabel 1650 3750 0    60   BiDi ~ 0
PB2
Text HLabel 3550 3000 2    60   BiDi ~ 0
PD11
Text HLabel 1650 1900 0    60   BiDi ~ 0
PA0
Text HLabel 1650 2100 0    60   BiDi ~ 0
PA2
Text HLabel 1650 2600 0    60   BiDi ~ 0
PA7
Text HLabel 1650 3650 0    60   BiDi ~ 0
PB1
Text HLabel 3550 1900 2    60   BiDi ~ 0
PD0
Text HLabel 3550 2000 2    60   BiDi ~ 0
PD1
Text HLabel 3550 2100 2    60   Output ~ 0
SDMMC1_CMD
Text HLabel 3550 2200 2    60   BiDi ~ 0
PD3
Text HLabel 3550 2300 2    60   BiDi ~ 0
PD4
Text HLabel 3550 2400 2    60   BiDi ~ 0
PD5
Text HLabel 3550 2500 2    60   BiDi ~ 0
PD6
Text HLabel 3550 2600 2    60   BiDi ~ 0
PD7
Text HLabel 3550 3850 2    60   BiDi ~ 0
PE3
Text HLabel 3550 3300 2    60   BiDi ~ 0
PD14
Text HLabel 3550 3550 2    60   BiDi ~ 0
PE0
Text HLabel 1650 6500 0    60   BiDi ~ 0
PC13
Text HLabel 1650 5600 0    60   BiDi ~ 0
PC4
Text HLabel 1650 5700 0    60   BiDi ~ 0
PC5
Text HLabel 3550 4250 2    60   BiDi ~ 0
PE7
Text HLabel 3550 4350 2    60   BiDi ~ 0
PE8
Text HLabel 3550 4450 2    60   BiDi ~ 0
PE9
Text HLabel 3550 4550 2    60   BiDi ~ 0
PE10
Text HLabel 1650 4750 0    60   BiDi ~ 0
PB12
Text HLabel 1650 4850 0    60   BiDi ~ 0
PB13
Wire Wire Line
	3550 3650 4200 3650
Text Label 4200 3650 2    60   ~ 0
UART8_TX
Text HLabel 1650 6600 0    60   BiDi ~ 0
PC14
Text Label 6700 2000 2    60   ~ 0
UART8_TX
Text HLabel 8700 3900 2    60   BiDi ~ 0
NRST
Wire Wire Line
	8600 3900 8700 3900
Text HLabel 3900 5700 2    60   BiDi ~ 0
NRST
Wire Wire Line
	3550 2700 4200 2700
Text Label 4200 2700 2    60   ~ 0
USART3_TX
Text Label 6950 5500 0    60   ~ 0
USART3_TX
Text HLabel 7750 5500 2    60   Output ~ 0
USART1_TX
Wire Wire Line
	6950 5500 7750 5500
Text Notes 6950 6200 0    60   ~ 0
VT100 can have different UART RX and TX speed.\nWe can use different USART module to get different speed.\nBackward compatible:\nif USART1_TX is made AF and USART3_TX floating. (by default)\n\nWARNING: DO NOT MAKE BOTH PIN OUTPUT AT SAME TIME.
$Comp
L TEST TP40
U 1 1 58EE0024
P 6700 2000
F 0 "TP40" H 6700 2300 50  0000 C BNN
F 1 "TEST" H 6700 2250 50  0000 C CNN
F 2 "Measurement_Points:Measurement_Point_Round-TH_Small" H 6700 2000 50  0001 C CNN
F 3 "" H 6700 2000 50  0001 C CNN
	1    6700 2000
	-1   0    0    1   
$EndComp
Text HLabel 1650 6700 0    60   BiDi ~ 0
PC15
Text HLabel 1650 6200 0    60   BiDi ~ 0
SDMMC1_D2
Text HLabel 1650 6300 0    60   BiDi ~ 0
SDMMC1_D3
Text HLabel 1650 6400 0    60   Output ~ 0
SDMMC1_CK
Text HLabel 1650 6000 0    60   BiDi ~ 0
SDMMC1_D0
Text HLabel 1650 6100 0    60   BiDi ~ 0
SDMMC1_D1
Text HLabel 3550 3400 2    60   Output ~ 0
TIM4_CH4
Text HLabel 1650 5200 0    60   BiDi ~ 0
PC0
Text HLabel 1650 5300 0    60   BiDi ~ 0
PC1
Text HLabel 1650 5400 0    60   BiDi ~ 0
PC2
Text HLabel 1650 5500 0    60   BiDi ~ 0
PC3
Text HLabel 3550 2800 2    60   BiDi ~ 0
PD9
$EndSCHEMATC
